# Fdb version 3
["lualatex"] 1628846782 "/home/luiz/Documents/gdrive/shared/Luiz Fernando/papers-in-development/connectivite-incrementale-pour-les-graphes-temporels/snam/template.tex" "build/template.pdf" "template" 1628846782
  "/home/luiz/Documents/gdrive/shared/Luiz Fernando/papers-in-development/connectivite-incrementale-pour-les-graphes-temporels/snam/template.tex" 1628846782 75552 fd2f43c84abab68b727ccc612d8f030b ""
  "/usr/share/texmf-dist/tex/generic/unicode-data/CaseFolding.txt" 1617738065 82810 5f9103a43f1de6931ccd535dc2d04777 ""
  "/usr/share/texmf-dist/tex/generic/unicode-data/PropList.txt" 1617738065 126063 09a6b8a9bf45d76e1051f087476c584a ""
  "/usr/share/texmf-dist/tex/generic/unicode-data/ScriptExtensions.txt" 1617738065 21036 0498414f4b3ea003decdfbdc05d5eee4 ""
  "/usr/share/texmf-dist/tex/generic/unicode-data/Scripts.txt" 1617738065 175811 5f82197ad754fd20cee117a97732d384 ""
  "/usr/share/texmf-dist/tex/generic/unicode-data/SpecialCasing.txt" 1617738065 16830 681d4e1ebc39c3362fbd6c293070a8ea ""
  "/usr/share/texmf-dist/tex/generic/unicode-data/UnicodeData.txt" 1617738065 1851767 85879f1976cc8eb739ee5585a93938e2 ""
  "/usr/share/texmf-dist/tex/generic/unicode-data/WordBreakProperty.txt" 1617738065 103240 40f00b28bda4ea42f0d09ea1cf5a646a ""
  "/usr/share/texmf-dist/tex/latex/base/fix-cm.sty" 1617738065 14742 0d173bd349a3411c545b594a97fb0700 ""
  "/usr/share/texmf-dist/tex/latex/base/ltluatex.lua" 1617738065 19071 5eca6644e86be740ddc21c18c9b79330 ""
  "/usr/share/texmf-dist/tex/latex/base/ts1enc.def" 1617738065 7764 996679026d0382957cdad45a528f4fa8 ""
  "/usr/share/texmf-dist/tex/latex/l3kernel/expl3.lua" 1617738065 11443 3672c95ea895d2ba29caa9da5ca5973a ""
  "/usr/share/texmf-dist/tex/latex/latexconfig/lualatexquotejobname.lua" 1617738065 1031 977f79ff10b802fc398926378bec58e9 ""
  "/usr/share/texmf-dist/tex/luatex/lualibs/lualibs-basic-merged.lua" 1617738065 131468 fd1313508308a0eb9829063570435aca ""
  "/usr/share/texmf-dist/tex/luatex/lualibs/lualibs-basic.lua" 1617738065 2717 538b28c781d9675abf8ea106134f6a32 ""
  "/usr/share/texmf-dist/tex/luatex/lualibs/lualibs-compat.lua" 1617738065 603 398583cb619d20952d67edcedae41608 ""
  "/usr/share/texmf-dist/tex/luatex/lualibs/lualibs-extended-merged.lua" 1617738065 110513 18927093f376db6f759633b1df9ca47d ""
  "/usr/share/texmf-dist/tex/luatex/lualibs/lualibs-extended.lua" 1617738065 4858 1d0213aca5cd664173ccbc672f7cfe2f ""
  "/usr/share/texmf-dist/tex/luatex/lualibs/lualibs.lua" 1617738065 3779 b5f9573f0df8b6653bae489078a3417b ""
  "/usr/share/texmf-dist/tex/luatex/luaotfload/fontloader-2021-01-07.lua" 1617738065 863258 ef54bfa34416e2c85fa48d3195c67fd2 ""
  "/usr/share/texmf-dist/tex/luatex/luaotfload/fontloader-basics-gen.lua" 1617738065 12745 4bc43036e9796fccb0b8869f4b05bf2e ""
  "/usr/share/texmf-dist/tex/luatex/luaotfload/luaotfload-auxiliary.lua" 1617738065 32597 8e427ec79ced91d9fc6fbcece159d042 ""
  "/usr/share/texmf-dist/tex/luatex/luaotfload/luaotfload-case.lua" 1617738065 6809 6c20d5dc2b2b4227f873e7df0fd25316 ""
  "/usr/share/texmf-dist/tex/luatex/luaotfload/luaotfload-colors.lua" 1617738065 15954 7c201914c79310d9e79e75dfc7ee982b ""
  "/usr/share/texmf-dist/tex/luatex/luaotfload/luaotfload-configuration.lua" 1617738065 31151 589ca99522479a0929d6824bafa36f63 ""
  "/usr/share/texmf-dist/tex/luatex/luaotfload/luaotfload-database.lua" 1617738065 134863 4a0f9f3b500df0d8a8234a0954065e46 ""
  "/usr/share/texmf-dist/tex/luatex/luaotfload/luaotfload-embolden.lua" 1617738065 1004 5506419bc583d450f252542b1105d6ce ""
  "/usr/share/texmf-dist/tex/luatex/luaotfload/luaotfload-fallback.lua" 1617738065 4047 a3c8c048b14a304d3352871014ef1343 ""
  "/usr/share/texmf-dist/tex/luatex/luaotfload/luaotfload-features.lua" 1617738065 29002 33fdd06674606d043599dc4ea9b2a56b ""
  "/usr/share/texmf-dist/tex/luatex/luaotfload/luaotfload-harf-define.lua" 1617738065 13468 1c9a663bb7bfa650b93dcf01d5450675 ""
  "/usr/share/texmf-dist/tex/luatex/luaotfload/luaotfload-harf-plug.lua" 1617738065 41599 8fdc1ba513a6026546b883259e559c7e ""
  "/usr/share/texmf-dist/tex/luatex/luaotfload/luaotfload-init.lua" 1617738065 19547 e3b832a9efc91c977044383640835069 ""
  "/usr/share/texmf-dist/tex/luatex/luaotfload/luaotfload-letterspace.lua" 1617738065 18645 1a518a55f6663ce13866416a5b94d6a4 ""
  "/usr/share/texmf-dist/tex/luatex/luaotfload/luaotfload-loaders.lua" 1617738065 8840 d169564522ac7194e7410d8263cd1b31 ""
  "/usr/share/texmf-dist/tex/luatex/luaotfload/luaotfload-log.lua" 1617738065 11323 809e4afac4e070b619512461a6fedd90 ""
  "/usr/share/texmf-dist/tex/luatex/luaotfload/luaotfload-main.lua" 1617738065 275 b19c9cc34cf1d676c39f872cfb41aef6 ""
  "/usr/share/texmf-dist/tex/luatex/luaotfload/luaotfload-multiscript.lua" 1617738065 15068 db7b6c7791b4b909d12234620ff7973d ""
  "/usr/share/texmf-dist/tex/luatex/luaotfload/luaotfload-notdef.lua" 1617738065 12224 26fed1a76150718e05c8c56b1983ebdd ""
  "/usr/share/texmf-dist/tex/luatex/luaotfload/luaotfload-parsers.lua" 1617738065 30999 dba42cb2f6bbfa13b9a56d0e4a2b2f44 ""
  "/usr/share/texmf-dist/tex/luatex/luaotfload/luaotfload-resolvers.lua" 1617738065 10984 b387d9435738f7ce8cf1e6af86b565a6 ""
  "/usr/share/texmf-dist/tex/luatex/luaotfload/luaotfload-scripts.lua" 1617738065 2506 2b924be852e17191e651faf5a2097e12 ""
  "/usr/share/texmf-dist/tex/luatex/luaotfload/luaotfload-status.lua" 1617738065 6317 de8b416497205d269b31674daef0f48b ""
  "/usr/share/texmf-dist/tex/luatex/luaotfload/luaotfload-suppress.lua" 1617738065 2582 b07873bfeb7764f9b5b440cd6b170f63 ""
  "/usr/share/texmf-dist/tex/luatex/luaotfload/luaotfload-szss.lua" 1617738065 6259 2413a2be98181fe77f7e110369194769 ""
  "/usr/share/texmf-dist/tex/luatex/luaotfload/luaotfload-tounicode.lua" 1617738065 7528 e07e112222777070250fbc980b2e6b85 ""
  "/usr/share/texmf-dist/tex/luatex/luaotfload/luaotfload-unicode.lua" 1617738065 7589 1d7fd6ab63640cb6c8e2091ac5a57915 ""
  "/usr/share/texmf-dist/tex/luatex/luaotfload/luaotfload.lua" 1617738065 13788 c3df7754a82557bc3e50d0714ad8a67c ""
  "/var/lib/texmf/web2c/luahbtex/lualatex.fmt" 1624889767 3314097 e9e85492385364dfcd16d2ac99149892 ""
  "build/svjour3.cls" 0 -1 0 ""
  "build/template.aux" 1628846256 8 a94a2480d3289e625eea47cd1b285758 ""
  "snam/template.tex" 1628846782 75552 fd2f43c84abab68b727ccc612d8f030b ""
  "svjour3.cls" 0 -1 0 ""
  (generated)
  "build/template.log"
  "build/template.pdf"
